fiblab/fiblab.sim/sim_1/behav/xsim/simulate.log
Time resolution is 1 ps
Time = 0 ns | Reset = 1 | Fibonacci Number =     0
Time = 20000 ns | Reset = 0 | Fibonacci Number =     0
Time = 25000 ns | Reset = 0 | Fibonacci Number =     1
Time = 45000 ns | Reset = 0 | Fibonacci Number =     2
Time = 55000 ns | Reset = 0 | Fibonacci Number =     3
Time = 65000 ns | Reset = 0 | Fibonacci Number =     5
Time = 75000 ns | Reset = 0 | Fibonacci Number =     8
Time = 85000 ns | Reset = 0 | Fibonacci Number =    13
Time = 95000 ns | Reset = 0 | Fibonacci Number =    21
Time = 105000 ns | Reset = 0 | Fibonacci Number =    34
Time = 115000 ns | Reset = 0 | Fibonacci Number =    55
Time = 125000 ns | Reset = 0 | Fibonacci Number =    89
Time = 135000 ns | Reset = 0 | Fibonacci Number =   144
Time = 145000 ns | Reset = 0 | Fibonacci Number =   233
Time = 155000 ns | Reset = 0 | Fibonacci Number =   377
Time = 165000 ns | Reset = 0 | Fibonacci Number =   610
Time = 175000 ns | Reset = 0 | Fibonacci Number =   987
Time = 185000 ns | Reset = 0 | Fibonacci Number =  1597
Time = 195000 ns | Reset = 0 | Fibonacci Number =  2584
Time = 205000 ns | Reset = 0 | Fibonacci Number =  4181
Time = 320000 ns | Reset = 1 | Fibonacci Number =     0
Time = 340000 ns | Reset = 0 | Fibonacci Number =     0
Time = 345000 ns | Reset = 0 | Fibonacci Number =     1
Time = 365000 ns | Reset = 0 | Fibonacci Number =     2
Time = 375000 ns | Reset = 0 | Fibonacci Number =     3
Time = 385000 ns | Reset = 0 | Fibonacci Number =     5
Time = 395000 ns | Reset = 0 | Fibonacci Number =     8
Time = 405000 ns | Reset = 0 | Fibonacci Number =    13
Time = 415000 ns | Reset = 0 | Fibonacci Number =    21
Time = 425000 ns | Reset = 0 | Fibonacci Number =    34
Time = 435000 ns | Reset = 0 | Fibonacci Number =    55
Time = 445000 ns | Reset = 0 | Fibonacci Number =    89
Time = 455000 ns | Reset = 0 | Fibonacci Number =   144
Time = 465000 ns | Reset = 0 | Fibonacci Number =   233
Time = 475000 ns | Reset = 0 | Fibonacci Number =   377
Time = 485000 ns | Reset = 0 | Fibonacci Number =   610
Time = 495000 ns | Reset = 0 | Fibonacci Number =   987
Time = 505000 ns | Reset = 0 | Fibonacci Number =  1597
Time = 515000 ns | Reset = 0 | Fibonacci Number =  2584
Time = 525000 ns | Reset = 0 | Fibonacci Number =  4181
$finish called at time : 540 ns : File "C:/Users/gkash/Verilog files/fiblab/fiblab.srcs/sim_1/new/tb1.v" Line 73
