bad_alu/bad_alu.sim/sim_1/behav/xsim/simulate.log
Time resolution is 1 ps

==============================
TEST SET: A=10, B=5
==============================
A=10  B=5  OP=0000  RESULT=15 (0x0000000f)  ZERO=0 | EXP=15 (0x0000000f)  EXPZ=0  PASS
A=10  B=5  OP=0010  RESULT=5 (0x00000005)  ZERO=0 | EXP=5 (0x00000005)  EXPZ=0  PASS
A=10  B=5  OP=0100  RESULT=0 (0x00000000)  ZERO=1 | EXP=0 (0x00000000)  EXPZ=1  PASS
A=10  B=5  OP=0101  RESULT=15 (0x0000000f)  ZERO=0 | EXP=15 (0x0000000f)  EXPZ=0  PASS
A=10  B=5  OP=0110  RESULT=4294967280 (0xfffffff0)  ZERO=0 | EXP=4294967280 (0xfffffff0)  EXPZ=0  PASS
A=10  B=5  OP=1010  RESULT=15 (0x0000000f)  ZERO=0 | EXP=15 (0x0000000f)  EXPZ=0  PASS
A=10  B=5  OP=1111  RESULT=0 (0x00000000)  ZERO=0 | EXP=0 (0x00000000)  EXPZ=0  PASS
---- Random opcode for this set: 0011 ----
A=10  B=5  OP=0011  RESULT=0 (0x00000000)  ZERO=1 | EXP=0 (0x00000000)  EXPZ=1  PASS

==============================
TEST SET: A=5673982, B=8436235
==============================
A=5673982  B=8436235  OP=0000  RESULT=14110217 (0x00d74e09)  ZERO=0 | EXP=14110217 (0x00d74e09)  EXPZ=0  PASS
A=5673982  B=8436235  OP=0010  RESULT=4292205043 (0xffd5d9f3)  ZERO=0 | EXP=4292205043 (0xffd5d9f3)  EXPZ=0  PASS
A=5673982  B=8436235  OP=0100  RESULT=37386 (0x0000920a)  ZERO=0 | EXP=37386 (0x0000920a)  EXPZ=0  PASS
A=5673982  B=8436235  OP=0101  RESULT=14072831 (0x00d6bbff)  ZERO=0 | EXP=14072831 (0x00d6bbff)  EXPZ=0  PASS
A=5673982  B=8436235  OP=0110  RESULT=4280894464 (0xff294400)  ZERO=0 | EXP=4280894464 (0xff294400)  EXPZ=0  PASS
A=5673982  B=8436235  OP=1010  RESULT=14035445 (0x00d629f5)  ZERO=0 | EXP=14035445 (0x00d629f5)  EXPZ=0  PASS
A=5673982  B=8436235  OP=1111  RESULT=1 (0x00000001)  ZERO=1 | EXP=1 (0x00000001)  EXPZ=1  PASS
---- Random opcode for this set: 1011 ----
A=5673982  B=8436235  OP=1011  RESULT=0 (0x00000000)  ZERO=1 | EXP=0 (0x00000000)  EXPZ=1  PASS

==============================
TEST SET: A=934, B=934
==============================
A=934  B=934  OP=0000  RESULT=1868 (0x0000074c)  ZERO=0 | EXP=1868 (0x0000074c)  EXPZ=0  PASS
A=934  B=934  OP=0010  RESULT=0 (0x00000000)  ZERO=1 | EXP=0 (0x00000000)  EXPZ=1  PASS
A=934  B=934  OP=0100  RESULT=934 (0x000003a6)  ZERO=0 | EXP=934 (0x000003a6)  EXPZ=0  PASS
A=934  B=934  OP=0101  RESULT=934 (0x000003a6)  ZERO=0 | EXP=934 (0x000003a6)  EXPZ=0  PASS
A=934  B=934  OP=0110  RESULT=4294966361 (0xfffffc59)  ZERO=0 | EXP=4294966361 (0xfffffc59)  EXPZ=0  PASS
A=934  B=934  OP=1010  RESULT=0 (0x00000000)  ZERO=1 | EXP=0 (0x00000000)  EXPZ=1  PASS
A=934  B=934  OP=1111  RESULT=0 (0x00000000)  ZERO=0 | EXP=0 (0x00000000)  EXPZ=0  PASS
---- Random opcode for this set: 0100 ----
A=934  B=934  OP=0100  RESULT=934 (0x000003a6)  ZERO=0 | EXP=934 (0x000003a6)  EXPZ=0  PASS

All tests done.
$finish called at time : 256 ns : File "C:/Users/gkash/Verilog files/bad_alu/bad_alu.srcs/sim_1/new/tb_alu_me.v" Line 119
