ALU_GateLevel_8bit.sim/sim_1/behav/xsim/simulate.log
Time resolution is 1 ps
[85000] PASS U op=0 A=10 B=20 -> result=001e cout=0
[105000] PASS U op=1 A=50 B=20 -> result=001e cout=1
[125000] PASS U op=0 A=200 B=100 -> result=002c cout=1
[145000] PASS U op=1 A=10 B=20 -> result=00f6 cout=0
[165000] PASS S op=2 A=20 B=30 -> result=0032 overflow=0
[185000] PASS S op=3 A=20 B=30 -> result=fff6 overflow=0
[205000] PASS S op=2 A=127 B=1 -> result=ff80 overflow=1
[225000] PASS S op=3 A=-128 B=1 -> result=007f overflow=1
[355000] PASS MULU A=13 B=11 -> result=008f
[485000] PASS MULU A=255 B=255 -> result=fe01
[615000] PASS DIVU A=100 B=7 -> R=2 Q=14 packed=020e
[745000] PASS DIVU A=255 B=10 -> R=5 Q=25 packed=0519
[875000] PASS DIVU A=9 B=3 -> R=0 Q=3 packed=0003
[875000] ALL TESTS PASSED
$finish called at time : 875 ns : File "C:/Users/gkash/Verilog/ALU_GateLevel_8bit/ALU_GateLevel_8bit.srcs/sim_1/new/tb_ALU_GL.v" Line 295
